01/01/2000 00:00:00 dummy
01/01/2000 00:00:01 dummy
01/01/2000 00:00:02 dummy
01/01/2000 00:00:03 dummy
01/01/2000 00:00:04 dummy
01/01/2000 00:00:05 dummy
01/01/2000 00:00:06 dummy
01/01/2000 00:00:07 dummy
01/01/2000 00:00:08 dummy
01/01/2000 00:00:09 dummy
01/01/2000 00:00:10 dummy
01/01/2000 00:00:11 dummy
01/01/2000 00:00:12 dummy
01/01/2000 00:00:13 dummy
01/01/2000 00:00:14 dummy
01/01/2000 00:00:15 dummy
01/01/2000 00:00:16 dummy
01/01/2000 00:00:17 dummy
01/01/2000 00:00:18 dummy
01/01/2000 00:00:19 dummy
01/01/2000 00:00:20 dummy
01/01/2000 00:00:21 dummy
01/01/2000 00:00:22 dummy
01/01/2000 00:00:23 dummy
01/01/2000 00:00:24 dummy
01/01/2000 00:00:25 dummy
01/01/2000 00:00:26 dummy
01/01/2000 00:00:27 dummy
01/01/2000 00:00:28 dummy
01/01/2000 00:00:29 dummy
25/10/2011 20:20:29 1
25/10/2011 20:25:08 0
29/10/2011 17:45:57 883238907
29/10/2011 23:32:19 978373737
30/10/2011 01:46:49 277633884
30/10/2011 01:48:51 490672361
30/10/2011 02:10:29 736153093
30/10/2011 02:15:50 292640605
30/10/2011 02:17:19 833335927
30/10/2011 02:20:41 369005887
30/10/2011 14:18:38 196
30/10/2011 14:23:49 151
30/10/2011 15:03:26 151
30/10/2011 16:33:38 946644060
30/10/2011 16:35:18 579673643
30/10/2011 16:37:26 192723051
30/10/2011 16:40:42 191400351
30/10/2011 16:57:35 922636132
30/10/2011 16:58:12 514469649
30/10/2011 17:21:02 705344575
30/10/2011 17:24:50 692382070
30/10/2011 18:18:02 456066376
30/10/2011 18:18:42 680200018
30/10/2011 18:20:04 941046569
30/10/2011 18:25:44 394549900
30/10/2011 23:44:52 562286402
31/10/2011 09:21:30 424829151
31/10/2011 19:41:53 679108828
01/11/2011 23:10:53 703648442
03/11/2011 00:43:32 657111930
03/11/2011 00:44:24 105147235
03/11/2011 00:45:22 127442025
03/11/2011 00:57:29 338256689
04/11/2011 15:45:43 262313864
04/11/2011 15:57:46 517763670
06/11/2011 00:11:11 875259923
06/11/2011 00:22:11 932248626
06/11/2011 00:32:35 117688950
06/11/2011 00:42:07 121349893
06/11/2011 00:43:38 409475719
06/11/2011 00:46:25 342774701
06/11/2011 00:46:58 796278961
06/11/2011 01:30:12 287349562
06/11/2011 01:42:10 405596983
06/11/2011 15:14:20 693949817
06/11/2011 15:24:32 944786695
06/11/2011 15:34:12 65471730
06/11/2011 15:43:25 378837541
06/11/2011 16:28:28 72824188
06/11/2011 21:51:33 25084850
07/11/2011 18:55:46 132488472
07/11/2011 19:35:57 314653999
07/11/2011 19:36:37 692568004
07/11/2011 21:38:06 679692220
07/11/2011 21:45:29 94831517
07/11/2011 22:06:20 152671717
07/11/2011 22:08:12 405921288
07/11/2011 22:11:59 128290938
07/11/2011 22:12:25 336955989
07/11/2011 22:17:37 659135151
07/11/2011 22:29:36 198817127
07/11/2011 22:34:04 346739274
07/11/2011 22:42:28 526108915
07/11/2011 22:44:12 329757189
07/11/2011 22:56:29 441572469
07/11/2011 22:58:00 594291429
07/11/2011 23:03:54 570092880
07/11/2011 23:09:42 799379890
07/11/2011 23:11:52 941111310
07/11/2011 23:19:41 382109112
07/11/2011 23:20:30 437702740
07/11/2011 23:24:44 94067884
07/11/2011 23:25:23 291005618
07/11/2011 23:27:53 555114613
14/11/2011 22:59:26 273704683
14/11/2011 23:00:11 387491332
15/11/2011 10:44:09 715452
15/11/2011 14:22:42 736906540
15/11/2011 14:36:23 649114758
15/11/2011 15:19:51 305296269
15/11/2011 15:23:21 811729379
15/11/2011 15:30:25 367915042
15/11/2011 15:31:49 402383572
15/11/2011 15:59:40 879461698
15/11/2011 16:04:03 803742871
15/11/2011 16:24:51 525010965
15/11/2011 16:55:27 306540141
15/11/2011 17:04:35 955783861
15/11/2011 17:12:14 616495802
15/11/2011 17:25:50 908683122
15/11/2011 17:38:57 482722348
15/11/2011 22:45:32 557062936
16/11/2011 16:43:17 569259415
16/11/2011 16:51:18 284814665
16/11/2011 16:52:30 98594433
16/11/2011 16:54:54 59280885
16/11/2011 16:55:51 244442388
16/11/2011 16:56:48 580860147
16/11/2011 17:08:58 889368415
16/11/2011 17:17:58 374957324
16/11/2011 17:24:16 734915804
16/11/2011 17:33:58 852745014
17/11/2011 10:45:43 178126357
17/11/2011 10:49:10 475323764
17/11/2011 10:52:13 435214855
17/11/2011 10:54:35 860453947
17/11/2011 11:00:12 787162612
17/11/2011 11:12:22 723361474
17/11/2011 11:25:26 751406403
17/11/2011 11:27:13 26106319
17/11/2011 11:27:58 87753879
17/11/2011 11:42:23 63867575
17/11/2011 11:43:52 613777611
17/11/2011 11:47:53 399145489
17/11/2011 12:07:38 543043817
17/11/2011 12:12:19 637045151
17/11/2011 12:14:51 551619839
17/11/2011 14:22:25 357073134
17/11/2011 14:31:42 545442244
17/11/2011 14:37:34 941073467
17/11/2011 14:59:42 562208332
17/11/2011 15:02:53 817692760
17/11/2011 15:04:02 742589454
17/11/2011 15:04:52 579705329
17/11/2011 15:06:21 897616273
17/11/2011 15:07:18 416971647
17/11/2011 15:11:51 103054162
17/11/2011 15:32:25 54969405
17/11/2011 15:35:33 211657682
17/11/2011 15:50:00 393664400
17/11/2011 15:52:53 622602482
17/11/2011 15:54:38 558173232
17/11/2011 15:55:13 171454510
17/11/2011 15:56:00 548396363
17/11/2011 16:06:19 538447608
17/11/2011 16:14:29 985271175
17/11/2011 16:15:23 11709550
17/11/2011 16:16:41 440994371
17/11/2011 17:10:44 361523991
17/11/2011 21:44:09 486870250
18/11/2011 22:34:51 665466198
18/11/2011 22:38:16 646592449
18/11/2011 22:49:51 446526357
18/11/2011 22:51:15 454822715
18/11/2011 22:59:21 751260454
18/11/2011 23:01:04 677479030
18/11/2011 23:17:19 697242273
18/11/2011 23:18:13 373299837
18/11/2011 23:19:24 268114614
18/11/2011 23:20:19 551849326
18/11/2011 23:20:37 547894328
18/11/2011 23:23:37 551228922
18/11/2011 23:42:04 437676850
18/11/2011 23:57:14 918642274
18/11/2011 23:57:42 57909564
18/11/2011 23:58:33 38074076
19/11/2011 00:00:31 65532532
19/11/2011 00:08:00 78021949
19/11/2011 00:11:34 851687266
19/11/2011 00:18:12 905652350
19/11/2011 00:30:12 556677004
19/11/2011 00:35:16 234231672
19/11/2011 00:36:10 255285996
19/11/2011 14:40:40 173
19/11/2011 14:46:33 141
19/11/2011 15:04:16 596
19/11/2011 22:13:25 141
19/11/2011 22:14:16 151
19/11/2011 22:43:21 151
20/11/2011 01:12:55 140
20/11/2011 01:15:51 141
20/11/2011 01:23:07 151
20/11/2011 01:27:06 152
20/11/2011 01:28:50 141
20/11/2011 01:32:18 151
20/11/2011 16:35:22 140
20/11/2011 16:35:42 151
20/11/2011 17:47:27 169
20/11/2011 17:54:50 189
20/11/2011 17:58:31 141
20/11/2011 18:16:39 151
20/11/2011 18:33:48 871942565
20/11/2011 23:06:24 710165025
20/11/2011 23:26:21 261913485
20/11/2011 23:30:53 44866152
20/11/2011 23:36:03 272248072
20/11/2011 23:37:26 310104038
20/11/2011 23:43:12 910355712
20/11/2011 23:55:45 531879459
20/11/2011 23:56:49 426942262
20/11/2011 23:59:02 155735967
21/11/2011 00:06:42 410886801
21/11/2011 00:08:34 862492728
21/11/2011 00:38:19 128942039
21/11/2011 00:42:33 17312487
21/11/2011 00:45:19 109969046
21/11/2011 00:48:11 703839421
21/11/2011 00:50:58 850681362
21/11/2011 01:00:41 781330175
21/11/2011 01:01:56 976833965
21/11/2011 01:11:31 373807759
21/11/2011 01:13:26 929912880
21/11/2011 16:41:07 351678081
21/11/2011 16:51:17 112160819
21/11/2011 16:58:17 919363598
21/11/2011 17:45:41 47630415
21/11/2011 17:46:46 868614318
21/11/2011 17:48:51 874361436
21/11/2011 17:50:17 959801092
21/11/2011 17:53:38 214076500
21/11/2011 17:55:52 98834488
21/11/2011 17:56:45 423760055
21/11/2011 17:57:55 775282130
21/11/2011 18:04:25 705236091
21/11/2011 18:05:41 477777651
21/11/2011 18:12:51 70058266
21/11/2011 23:21:38 636640437
22/11/2011 00:41:25 959119623
22/11/2011 14:24:46 916872815
22/11/2011 14:36:43 706975095
22/11/2011 14:44:09 758493664
22/11/2011 14:49:02 390248641
22/11/2011 15:41:29 319170907
22/11/2011 15:42:59 207720234
22/11/2011 15:44:04 148797655
22/11/2011 15:45:24 204469347
22/11/2011 15:45:48 437787395
22/11/2011 15:52:34 742309231
22/11/2011 15:55:22 594373001
22/11/2011 15:56:22 522707072
22/11/2011 15:57:09 731529159
22/11/2011 15:58:29 771660793
22/11/2011 16:21:45 478906614
22/11/2011 16:26:12 388878342
22/11/2011 16:56:53 323833941
22/11/2011 17:00:35 825173929
22/11/2011 17:02:32 329619122
22/11/2011 17:21:42 593554253
22/11/2011 17:23:54 549311050
25/11/2011 16:34:26 899887036
25/11/2011 17:02:40 620505978
25/11/2011 17:07:06 607784579
25/11/2011 17:17:39 764653747
25/11/2011 17:20:40 234717930
25/11/2011 17:23:06 15246300
25/11/2011 17:28:44 573643684
25/11/2011 17:29:07 382906199
25/11/2011 17:33:50 463356658
25/11/2011 17:39:55 30223640
26/11/2011 12:27:36 665739937
26/11/2011 16:27:14 625642265
26/11/2011 20:38:20 789887175
26/11/2011 20:41:08 929599195
26/11/2011 20:42:12 229670465
26/11/2011 20:47:49 991337906
26/11/2011 20:52:12 642224231
26/11/2011 21:06:29 362503326
26/11/2011 21:11:22 907732047
26/11/2011 21:13:52 408858146
26/11/2011 21:19:11 660012802
26/11/2011 21:25:00 241259873
26/11/2011 21:25:24 49791063
26/11/2011 21:39:31 494235391
27/11/2011 12:15:46 195
27/11/2011 15:54:47 151
27/11/2011 15:57:23 191
27/11/2011 17:31:59 141
28/11/2011 10:34:57 531901984
28/11/2011 10:47:13 170870113
28/11/2011 10:51:18 584743060
28/11/2011 13:07:40 555896174
28/11/2011 13:22:10 616595019
28/11/2011 13:28:21 63111671
28/11/2011 13:42:00 534509321
28/11/2011 13:55:17 200580022
28/11/2011 13:58:23 228070738
28/11/2011 14:01:26 792875833
28/11/2011 14:19:49 625208229
28/11/2011 14:34:08 50641324
28/11/2011 14:41:55 189596243
28/11/2011 14:47:30 217627476
28/11/2011 14:51:16 174974381
28/11/2011 15:43:49 839806437
28/11/2011 16:52:41 523177717
28/11/2011 17:23:39 319624487
28/11/2011 21:20:20 340879522
28/11/2011 23:16:14 40872270
28/11/2011 23:18:56 102047998
28/11/2011 23:19:42 957586336
29/11/2011 10:11:03 726651386
29/11/2011 11:09:03 458226811
29/11/2011 11:09:30 463214297
29/11/2011 11:12:23 241346633
29/11/2011 11:13:44 869878864
29/11/2011 15:13:20 69756766
29/11/2011 15:15:36 980374956
29/11/2011 15:38:17 685482477
29/11/2011 15:39:53 288676507
29/11/2011 15:41:24 719896997
29/11/2011 15:42:48 920373120
29/11/2011 15:48:57 448769491
29/11/2011 15:52:22 903920085
29/11/2011 16:30:10 556586716
29/11/2011 16:32:07 33326495
29/11/2011 16:41:48 332296705
29/11/2011 16:42:42 104136931
29/11/2011 17:21:18 763248865
29/11/2011 17:24:33 186712499
29/11/2011 17:33:04 588303493
29/11/2011 17:35:37 49050275
30/11/2011 11:21:50 996181961
30/11/2011 11:23:38 677408058
30/11/2011 11:24:00 135578274
30/11/2011 11:26:00 53067428
30/11/2011 11:26:28 808839679
30/11/2011 11:28:26 321360924
30/11/2011 11:28:59 938357573
30/11/2011 12:36:58 852121294
30/11/2011 12:37:36 252415995
30/11/2011 12:40:33 318294646
30/11/2011 12:41:12 202353130
30/11/2011 12:46:02 224812310
30/11/2011 12:48:54 964541821
30/11/2011 13:00:09 612659578
30/11/2011 13:06:14 885717638
30/11/2011 13:22:43 891124968
30/11/2011 13:25:12 72152889
30/11/2011 13:26:56 200191633
30/11/2011 13:27:55 978061177
30/11/2011 13:28:24 262691214
30/11/2011 13:39:17 350051979
30/11/2011 13:43:50 201362402
30/11/2011 13:46:00 260636978
30/11/2011 13:54:10 852669882
30/11/2011 13:57:40 719893250
30/11/2011 14:01:07 793952401
30/11/2011 14:06:21 923376037
30/11/2011 14:11:59 351578316
30/11/2011 14:13:24 533396172
30/11/2011 14:57:36 8784865
30/11/2011 14:58:30 288727937
30/11/2011 15:51:02 796904973
30/11/2011 15:51:37 718396412
30/11/2011 15:55:18 945637007
30/11/2011 16:10:53 825075957
30/11/2011 16:16:46 968758391
30/11/2011 16:18:25 559626668
30/11/2011 16:22:30 164332634
30/11/2011 16:30:00 464581613
30/11/2011 16:32:56 613396475
30/11/2011 16:51:08 278316543
30/11/2011 17:02:31 647849352
30/11/2011 17:10:22 536745711
30/11/2011 17:37:47 593160287
30/11/2011 17:39:36 540263888
30/11/2011 17:47:25 138782475
30/11/2011 18:09:54 282029511
30/11/2011 18:29:46 786306919
01/12/2011 10:39:09 356475954
01/12/2011 10:40:42 775715274
01/12/2011 10:44:30 354138140
01/12/2011 10:58:11 827668504
01/12/2011 11:07:16 760608117
01/12/2011 11:12:07 100529877
01/12/2011 12:30:03 140675271
01/12/2011 12:31:49 492773595
01/12/2011 12:33:16 395931375
01/12/2011 12:49:54 946297262
01/12/2011 13:05:30 510096153
01/12/2011 13:13:16 715779109
01/12/2011 13:16:57 575716939
01/12/2011 13:26:05 967758144
01/12/2011 13:28:52 652115611
01/12/2011 13:32:12 486619356
01/12/2011 13:33:37 198011493
01/12/2011 13:34:42 679446920
01/12/2011 13:39:56 960846307
01/12/2011 14:23:32 445017581
01/12/2011 14:24:33 218698437
01/12/2011 14:29:09 848167559
01/12/2011 14:29:58 659679321
01/12/2011 15:04:06 71004285
01/12/2011 15:43:05 346261691
01/12/2011 15:43:28 497600360
01/12/2011 15:44:34 946254323
01/12/2011 15:49:54 489037459
01/12/2011 15:53:52 454435898
01/12/2011 16:45:15 828869001
01/12/2011 16:49:14 85031511
01/12/2011 16:49:57 301744301
01/12/2011 16:53:09 67352307
01/12/2011 16:57:56 813228825
01/12/2011 16:58:38 796702897
01/12/2011 17:01:42 367176342
05/12/2011 10:19:21 419396424
05/12/2011 10:19:51 453422562
05/12/2011 10:35:53 840653321
05/12/2011 10:36:23 771593678
05/12/2011 10:39:45 157736985
05/12/2011 12:48:52 751748235
05/12/2011 12:53:14 32497432
05/12/2011 12:59:13 672912914
05/12/2011 13:04:28 485641635
05/12/2011 13:06:02 887861694
05/12/2011 16:31:36 763718546
05/12/2011 16:42:15 97199997
06/12/2011 15:20:42 69314152
06/12/2011 15:38:16 858997067
06/12/2011 16:21:32 5577440
06/12/2011 16:22:58 646360982
06/12/2011 16:32:20 59665838
06/12/2011 16:40:34 765106081
06/12/2011 16:43:30 541928536
06/12/2011 16:46:27 456979171
06/12/2011 16:53:38 396441701
07/12/2011 23:39:56 949937370
09/12/2011 13:58:35 764935166
09/12/2011 14:04:40 399575136
09/12/2011 16:36:12 392205893
13/12/2011 16:55:00 544779509
04/01/2012 11:14:05 911923408
04/01/2012 12:09:02 85002302
04/01/2012 13:13:48 676015
04/01/2012 13:16:36 985410709
04/01/2012 13:18:30 245970383
04/01/2012 13:24:45 52374108
04/01/2012 13:27:50 684892860
04/01/2012 13:29:39 281272924
04/01/2012 14:02:40 885602341
04/01/2012 14:03:49 851378728
04/01/2012 14:14:24 706147098
04/01/2012 14:17:43 636137644
04/01/2012 14:19:17 938252305
04/01/2012 14:24:38 369988698
04/01/2012 14:25:34 640956289
04/01/2012 15:17:49 202924720
04/01/2012 16:38:55 479160845
04/01/2012 16:45:58 660983732
04/01/2012 16:54:30 775898122
04/01/2012 17:00:53 585022927
04/01/2012 17:01:37 939659176
05/01/2012 09:59:10 573023819
05/01/2012 12:01:03 247990509
18/01/2012 18:08:08 412210082
19/01/2012 17:44:31 326342978
19/01/2012 17:46:17 749813704
22/01/2012 14:58:09 890897119
22/01/2012 16:03:52 363753830
22/01/2012 16:12:47 375251224
23/01/2012 09:45:45 337534441
23/01/2012 09:51:11 874617924
23/01/2012 10:00:01 634768455
24/01/2012 10:37:31 235787944
24/01/2012 10:38:59 229238236
24/01/2012 10:39:53 820664885
24/01/2012 10:48:32 508004447
24/01/2012 11:59:37 246562284
24/01/2012 15:11:22 202811801
24/01/2012 15:50:44 686565167
24/01/2012 15:53:12 643388976
24/01/2012 15:55:59 561872206
24/01/2012 23:26:34 151
24/01/2012 23:32:55 454
25/01/2012 10:24:55 78994505
25/01/2012 10:28:14 269886878
25/01/2012 10:34:33 986864997
25/01/2012 10:35:00 707800989
25/01/2012 11:23:09 723909907
25/01/2012 11:25:22 651680119
25/01/2012 11:38:02 302595938
25/01/2012 11:40:14 795775721
25/01/2012 11:49:12 553621814
25/01/2012 13:16:38 949015837
25/01/2012 13:17:44 900217749
31/01/2012 12:12:46 643183566
31/01/2012 12:12:58 221367130
31/01/2012 12:17:34 162381736
31/01/2012 12:21:50 318265305
31/01/2012 12:33:17 922562809
31/01/2012 12:34:14 985437266
01/02/2012 11:46:03 612317703
01/02/2012 12:52:40 208328897
01/02/2012 13:49:25 689112263
01/02/2012 15:16:41 608921518
01/02/2012 15:19:52 875466709
03/02/2012 10:54:33 588289457
03/02/2012 11:22:36 479962991
03/02/2012 11:24:30 678102812
03/02/2012 11:27:17 996380519
03/02/2012 11:28:49 277208455
03/02/2012 17:03:32 849397478
03/02/2012 17:16:47 116771160
03/02/2012 17:22:30 682196162
03/02/2012 17:25:44 200354465
03/02/2012 17:26:49 270865988
03/02/2012 17:39:43 168807559
03/02/2012 17:45:05 20800838
03/02/2012 17:46:16 465372929
05/02/2012 22:25:48 151
05/02/2012 22:29:44 151
05/02/2012 22:32:21 151
06/02/2012 14:15:29 865562047
08/02/2012 16:25:11 190998247
08/02/2012 16:29:29 99316879
08/02/2012 16:32:54 246162799
09/02/2012 11:19:59 376815128
09/02/2012 11:23:38 664511622
09/02/2012 11:24:34 430883422
09/02/2012 11:29:11 284654623
09/02/2012 11:32:05 919899318
09/02/2012 11:45:13 999579462
09/02/2012 11:49:12 5050030
09/02/2012 11:49:40 245384822
09/02/2012 11:53:38 686272210
09/02/2012 12:02:25 53703848
09/02/2012 12:03:11 573860480
09/02/2012 12:06:21 148033144
09/02/2012 12:09:42 524215089
09/02/2012 12:12:52 721320401
09/02/2012 12:22:42 653899033
09/02/2012 13:40:23 475985019
09/02/2012 13:41:52 957633533
09/02/2012 13:47:48 285611193
09/02/2012 13:56:25 845838143
09/02/2012 13:58:10 294109649
09/02/2012 14:02:20 683071565
09/02/2012 14:10:42 134427618
09/02/2012 14:21:15 114001109
09/02/2012 17:52:04 108783156
09/02/2012 18:06:07 548750313
09/02/2012 18:15:59 406598612
09/02/2012 18:21:42 683305122
09/02/2012 18:28:36 333932176
09/02/2012 18:29:50 946909938
09/02/2012 18:32:01 310126149
10/02/2012 14:03:28 444998908
10/02/2012 14:27:10 494748938
10/02/2012 14:35:30 869966416
10/02/2012 14:44:39 546031158
10/02/2012 14:54:11 611024374
10/02/2012 14:55:39 81466835
10/02/2012 15:01:33 97071835
10/02/2012 15:04:00 453386914
10/02/2012 15:43:35 940558638
10/02/2012 15:46:58 516200112
10/02/2012 15:48:56 977604581
10/02/2012 15:57:36 542632345
10/02/2012 16:04:42 378056614
10/02/2012 16:07:34 679008472
10/02/2012 16:09:40 485916007
10/02/2012 16:12:14 465044943
10/02/2012 16:25:07 577257379
10/02/2012 16:46:01 255519507
10/02/2012 16:47:47 673111048
10/02/2012 16:50:11 360469671
10/02/2012 16:59:32 632176660
10/02/2012 17:13:32 422988221
10/02/2012 17:22:29 803520233
10/02/2012 17:23:00 457765659
10/02/2012 17:25:23 575969178
10/02/2012 17:25:58 293567969
12/02/2012 02:04:20 152
12/02/2012 02:06:20 573
12/02/2012 02:21:21 151
12/02/2012 02:24:49 151
12/02/2012 02:30:35 151
13/02/2012 13:47:05 794846016
13/02/2012 17:22:12 481289023
14/02/2012 14:17:12 377280916
14/02/2012 14:33:07 321029210
21/02/2012 16:16:42 481558515
21/02/2012 16:18:43 975011826
21/02/2012 16:25:09 442112496
21/02/2012 16:36:24 696316067
23/02/2012 16:06:31 856295490
01/03/2012 14:31:13 47219759
02/03/2012 09:48:58 183972461
02/03/2012 09:49:38 923808019
02/03/2012 09:50:38 775624051
02/03/2012 09:51:25 402841119
02/03/2012 09:58:42 39734066
02/03/2012 09:59:02 556080189
02/03/2012 10:02:34 960227664
02/03/2012 10:04:46 640991908
02/03/2012 10:10:46 419995458
02/03/2012 10:11:26 491720849
02/03/2012 10:14:43 989847173
02/03/2012 10:15:36 497339348
02/03/2012 10:16:41 936440968
02/03/2012 10:17:18 583459499
02/03/2012 10:18:12 240974000
02/03/2012 10:19:32 488385608
02/03/2012 13:40:23 139181300
02/03/2012 13:47:29 248516705
02/03/2012 13:52:13 141596459
05/03/2012 14:08:25 212719520
05/03/2012 14:11:10 12290928
05/03/2012 14:51:36 597655352
05/03/2012 15:24:13 513950291
05/03/2012 15:38:54 583836955
05/03/2012 15:57:30 458154559
05/03/2012 15:58:35 350228923
05/03/2012 16:00:32 747378479
05/03/2012 16:18:17 956594755
05/03/2012 16:22:12 495050954
18/03/2012 19:38:46 692862706
21/03/2012 14:16:33 824662561
22/03/2012 12:26:54 336407006
30/03/2012 09:12:48 205768227
01/04/2012 11:15:28 770207729
01/04/2012 11:35:30 104941671
01/04/2012 11:37:16 303302619
01/04/2012 11:39:09 577389976
01/04/2012 11:46:01 878536870
01/04/2012 11:47:01 45766311
01/04/2012 11:47:42 142589216
01/04/2012 12:00:50 673419325
01/04/2012 13:25:06 778888763
01/04/2012 13:29:21 208918408
01/04/2012 13:32:33 391379846
01/04/2012 13:46:19 188947512
01/04/2012 13:51:34 761050825
01/04/2012 13:58:01 908749505
01/04/2012 13:59:10 39882365
01/04/2012 14:03:08 945297617
01/04/2012 14:05:19 596955066
01/04/2012 14:06:28 256463260
01/04/2012 14:07:20 246647962
01/04/2012 14:20:32 362781350
01/04/2012 14:22:30 795354024
01/04/2012 14:23:45 689018291
01/04/2012 14:27:37 154074688
01/04/2012 14:29:44 133590509
01/04/2012 14:34:17 61141327
01/04/2012 14:34:51 156012817
01/04/2012 14:36:11 78419448
01/04/2012 14:45:55 132523574
01/04/2012 14:49:13 67945899
01/04/2012 16:13:49 600829090
01/04/2012 16:15:23 338359622
01/04/2012 17:06:48 297106543
02/04/2012 20:55:36 185682084
02/04/2012 20:57:54 109861993
18/11/2012 22:41:20 374254974
19/11/2012 09:50:28 123066060
29/11/2012 12:56:03 25789038
07/03/2013 13:28:02 977781350
07/03/2013 13:33:59 615722353
27/03/2013 16:12:19 674430160
26/07/2013 13:08:10 539273446
26/07/2013 13:08:43 904831087
26/07/2013 13:29:30 323624760
26/07/2013 13:35:52 755752715
26/07/2013 13:36:39 77832495
26/07/2013 13:42:07 308405599
26/07/2013 13:43:48 53932738
26/07/2013 13:48:47 514413049
26/07/2013 14:01:33 999483884
26/07/2013 14:01:51 957307621
26/07/2013 14:18:18 495670271
26/07/2013 14:20:43 506388795
26/07/2013 14:24:40 357429332
26/07/2013 14:26:44 184785079
26/07/2013 14:28:58 822749012
26/07/2013 14:31:54 710174169
26/07/2013 14:32:53 262419685
26/07/2013 14:33:27 531865345
26/07/2013 14:33:44 866645776
26/07/2013 14:34:29 722162425
26/07/2013 14:34:57 553764764
26/07/2013 14:37:48 102720384
26/07/2013 14:38:39 415708997
26/07/2013 14:39:00 138576517
13/06/2014 23:22:46 408692027
30/10/2014 19:31:38 942910309
30/10/2014 19:31:51 714777318
30/10/2014 19:34:00 427819951
30/10/2014 19:38:47 36367176
30/10/2014 20:00:58 267176310
30/10/2014 20:05:22 863916866
30/10/2014 20:06:53 988204531
30/10/2014 20:07:23 494002161
30/10/2014 20:07:47 361483006
30/10/2014 20:10:07 983274440
30/10/2014 20:11:39 926941510
30/10/2014 20:11:45 906403773
30/10/2014 20:12:05 389715653
02/11/2014 17:19:50 139077588
02/11/2014 17:20:45 385373988
03/11/2014 13:31:40 638173079
03/11/2014 13:39:55 124427663
03/11/2014 13:43:52 301182060
03/11/2014 13:44:31 86319333
11/11/2014 12:07:59 798910185
11/11/2014 12:13:40 614394551
11/11/2014 12:22:42 56395954
11/11/2014 12:27:25 690160772
11/11/2014 13:56:03 39118482
11/11/2014 14:05:54 914800733
19/01/2015 15:37:46 460958284
19/01/2015 15:49:58 312481550
12/06/2015 17:08:50 879962452
12/06/2015 17:08:57 832393844
